<?xml version="1.0" encoding="UTF-8" standalone="no"?>
<!-- Created with Inkscape (http://www.inkscape.org/) -->

<svg
   id="svg2"
   sodipodi:version="0.32"
   inkscape:version="1.2.2 (b0a8486541, 2022-12-01)"
   width="20"
   height="20"
   version="1.0"
   sodipodi:docname="c.svg"
   inkscape:output_extension="org.inkscape.output.svg.inkscape"
   inkscape:export-filename="/home/doctormo/Desktop/small-pd.png"
   inkscape:export-xdpi="90"
   inkscape:export-ydpi="90"
   xmlns:inkscape="http://www.inkscape.org/namespaces/inkscape"
   xmlns:sodipodi="http://sodipodi.sourceforge.net/DTD/sodipodi-0.dtd"
   xmlns="http://www.w3.org/2000/svg"
   xmlns:svg="http://www.w3.org/2000/svg"
   xmlns:rdf="http://www.w3.org/1999/02/22-rdf-syntax-ns#"
   xmlns:cc="http://creativecommons.org/ns#"
   xmlns:dc="http://purl.org/dc/elements/1.1/">
  <metadata
     id="metadata7">
    <rdf:RDF>
      <cc:Work
         rdf:about="">
        <dc:format>image/svg+xml</dc:format>
        <dc:type
           rdf:resource="http://purl.org/dc/dcmitype/StillImage" />
      </cc:Work>
    </rdf:RDF>
  </metadata>
  <defs
     id="defs5">
    <foreignObject
       requiredExtensions="http://ns.adobe.com/AdobeIllustrator/10.0/"
       x="0"
       y="0"
       width="1"
       height="1"
       id="foreignObject8" />
  </defs>
  <sodipodi:namedview
     inkscape:window-height="1011"
     inkscape:window-width="1920"
     inkscape:pageshadow="2"
     inkscape:pageopacity="0"
     guidetolerance="10.0"
     gridtolerance="10.0"
     objecttolerance="10.0"
     borderopacity="1.0"
     bordercolor="#666666"
     pagecolor="#ffd7d7"
     id="base"
     showgrid="false"
     inkscape:zoom="10.18"
     inkscape:cx="-1.2770138"
     inkscape:cy="6.6797642"
     inkscape:window-x="0"
     inkscape:window-y="0"
     inkscape:current-layer="svg2"
     inkscape:window-maximized="1"
     showguides="false"
     inkscape:snap-global="true"
     fit-margin-top="0"
     fit-margin-left="0"
     fit-margin-right="0"
     fit-margin-bottom="0"
     inkscape:snap-bbox="false"
     inkscape:snap-page="true"
     inkscape:snap-grids="false"
     inkscape:snap-to-guides="false"
     inkscape:snap-nodes="false"
     inkscape:snap-others="false"
     inkscape:showpageshadow="2"
     inkscape:pagecheckerboard="0"
     inkscape:deskcolor="#d1d1d1" />
  <circle
     style="fill:#ffffff;stroke-width:4.75612;stroke-linecap:round;stroke-linejoin:round;stroke-miterlimit:20;paint-order:markers stroke fill;stop-color:#000000"
     id="path6926"
     cx="10"
     cy="10"
     r="7.4613981" />
  <g
     id="g11128"
     transform="matrix(1.255,0,0,1.313,-3.238,-2.129)"
     style="fill:#73789f" />
  <path
     id="path6980"
     style="font-weight:bold;font-size:9.84545px;line-height:1.25;-inkscape-font-specification:'sans-serif Bold';letter-spacing:0px;word-spacing:0px;fill:#b00808;stroke-width:0.787636"
     d="m 9.552538,7.6958235 q -0.8565542,0 -1.3094448,0.6399543 -0.4528908,0.6399542 -0.4528908,1.7524902 0,1.122381 0.4135089,1.742644 0.4233543,0.610418 1.3488267,0.610418 0.4331999,0 0.856554,-0.09845 0.4332,-0.09845 0.935318,-0.275673 v 1.250372 q -0.462736,0.187064 -0.915627,0.275673 -0.4528905,0.08861 -1.0140813,0.08861 -1.0829996,0 -1.791872,-0.443045 -0.699027,-0.452891 -1.0337723,-1.260218 -0.3347453,-0.817172 -0.3347453,-1.900172 0,-1.0633082 0.3839726,-1.8804805 Q 7.0222572,7.3807741 7.7508206,6.9180379 8.4892294,6.4553017 9.552538,6.4553017 q 0.521809,0 1.043618,0.1378363 0.531654,0.1279909 1.014081,0.3544363 L 11.12781,8.1585597 Q 10.733992,7.9714961 10.330329,7.8336598 9.9365105,7.6958235 9.552538,7.6958235 Z M 9.9999994,3.4796998 c 3.5962336,0 6.5195326,2.9232977 6.5195326,6.5195313 0,3.5962329 -2.923299,6.5210689 -6.5195325,6.5210689 -3.5962334,0 -6.5195312,-2.924836 -6.5195313,-6.5210689 0,-3.5962336 2.9232979,-6.5195313 6.5195312,-6.5195313 z m 0,0.7876356 c -3.1706069,10e-8 -5.7318955,2.561289 -5.7318955,5.7318957 0,3.1706059 2.5612886,5.7334329 5.7318955,5.7334329 3.1706076,0 5.7318966,-2.562827 5.7318966,-5.7334329 0,-3.1706067 -2.561289,-5.7318957 -5.7318966,-5.7318957 z" />
</svg>
