<?xml version="1.0" encoding="UTF-8" standalone="no"?>
<!-- Created with Inkscape (http://www.inkscape.org/) -->

<svg
   id="svg2"
   sodipodi:version="0.32"
   inkscape:version="1.2.2 (b0a8486541, 2022-12-01)"
   width="58"
   height="20"
   version="1.0"
   sodipodi:docname="gplv2.svg"
   inkscape:output_extension="org.inkscape.output.svg.inkscape"
   inkscape:export-filename="/home/doctormo/Desktop/small-pd.png"
   inkscape:export-xdpi="90"
   inkscape:export-ydpi="90"
   xmlns:inkscape="http://www.inkscape.org/namespaces/inkscape"
   xmlns:sodipodi="http://sodipodi.sourceforge.net/DTD/sodipodi-0.dtd"
   xmlns="http://www.w3.org/2000/svg"
   xmlns:svg="http://www.w3.org/2000/svg"
   xmlns:rdf="http://www.w3.org/1999/02/22-rdf-syntax-ns#"
   xmlns:cc="http://creativecommons.org/ns#"
   xmlns:dc="http://purl.org/dc/elements/1.1/">
  <path
     id="path7722"
     style="font-weight:bold;font-size:15.9098px;line-height:1.25;-inkscape-font-specification:'sans-serif Bold';letter-spacing:0px;word-spacing:0px;stroke-width:1.41299px"
     d="m 11.331055,4.1611329 c -1.272783,0 -2.3481741,0.2375502 -3.2285157,0.7148437 C 7.222198,5.3532701 6.5477419,6.0277261 6.0810549,6.897461 5.6249744,7.7671958 5.3974611,8.795468 5.3974611,9.9833985 c 1e-7,1.9091735 0.4550266,3.3623615 1.3671876,4.3593745 0.9121612,0.997013 2.2170192,1.496094 3.9140623,1.496094 0.816703,0 1.543296,-0.05911 2.179688,-0.175781 0.646998,-0.116672 1.267362,-0.275039 1.861328,-0.476563 V 9.2998047 h -4.501953 v 2.0039063 h 2.148437 v 2.371094 c -0.201524,0.04242 -0.424019,0.07951 -0.667969,0.111328 -0.233343,0.03182 -0.519966,0.04687 -0.859374,0.04687 -0.70003,0 -1.2682581,-0.158367 -1.7031261,-0.476563 C 8.7008749,13.027638 8.3821879,12.57763 8.1806639,12.004878 7.9791403,11.432131 7.879883,10.77273 7.879883,10.030274 c 0,-0.7848831 0.1363395,-1.4624045 0.4121089,-2.0351568 0.286376,-0.5833587 0.684246,-1.0353199 1.19336,-1.3535156 C 10.005071,6.3234059 10.6154,6.1650391 11.31543,6.1650391 c 0.4879,0 0.954916,0.059109 1.400391,0.1757812 0.445473,0.1166718 0.843343,0.2650017 1.193359,0.4453126 L 14.704102,4.8603516 C 14.226808,4.6482211 13.697617,4.4778642 13.114258,4.350586 12.530899,4.2233077 11.935627,4.1611329 11.331055,4.1611329 Z m 37.357422,0 c -0.678817,0 -1.2621,0.079183 -1.75,0.2382812 -0.477294,0.1484913 -0.902209,0.3439406 -1.273438,0.5878906 -0.360621,0.24395 -0.7044,0.5104989 -1.033203,0.796875 l 1.302735,1.5429688 c 0.45608,-0.3712283 0.891033,-0.6578511 1.304687,-0.859375 0.413654,-0.201524 0.83857,-0.3027344 1.273438,-0.3027344 0.424261,0 0.758002,0.1112474 1.001953,0.3339844 0.254556,0.222737 0.382812,0.5614976 0.382812,1.0175781 0,0.3712283 -0.07918,0.721979 -0.238281,1.0507813 -0.159098,0.3181956 -0.413656,0.6789833 -0.763672,1.0820312 -0.350015,0.3924409 -0.812013,0.8865029 -1.384766,1.4804689 l -2.847656,2.878906 v 1.669922 h 7.939453 V 13.65918 h -4.949218 v -0.111328 l 1.464843,-1.369141 c 0.668211,-0.615179 1.234485,-1.176434 1.701172,-1.685547 0.477294,-0.509113 0.838081,-1.0232491 1.082032,-1.5429687 0.254556,-0.5197196 0.382812,-1.0929651 0.382812,-1.71875 0,-0.5833587 -0.148329,-1.1025132 -0.445312,-1.5585937 C 51.552492,5.2061647 51.137613,4.8384053 50.59668,4.5732422 50.066354,4.2974726 49.430933,4.1611328 48.688477,4.1611329 Z M 17.424805,4.319336 v 11.359375 h 2.402344 v -4.041016 h 1.035156 c 1.103079,0 1.972984,-0.175375 2.609375,-0.52539 0.646997,-0.350015 1.107043,-0.81006 1.382812,-1.3828128 0.27577,-0.5833587 0.414063,-1.2037237 0.414063,-1.8613281 0,-1.1030784 -0.338761,-1.9679652 -1.017578,-2.59375 C 23.582766,4.6380228 22.515458,4.319336 21.051758,4.319336 Z m 9.992187,0 v 11.359375 h 7.015626 V 13.69043 H 29.819336 V 4.319336 Z m -7.589843,1.9726562 h 1.097656 c 1.272783,0 1.910156,0.5512185 1.910156,1.6542969 0,0.6045718 -0.20242,1.044543 -0.605469,1.3203125 -0.39244,0.2651631 -0.928603,0.3984375 -1.607421,0.3984375 h -0.794922 z m 15.146484,0.7011719 3.308594,8.6855469 h 2.435547 L 44.026368,6.9931641 H 41.543946 L 39.874024,11.94043 c -0.201524,0.615178 -0.31779,1.208498 -0.34961,1.78125 h -0.06445 c -0.0106,-0.254557 -0.04769,-0.54118 -0.111328,-0.859375 -0.05303,-0.318196 -0.127197,-0.624893 -0.222656,-0.921875 L 37.456055,6.9931641 Z" />
  <metadata
     id="metadata7">
    <rdf:RDF>
      <cc:Work
         rdf:about="">
        <dc:format>image/svg+xml</dc:format>
        <dc:type
           rdf:resource="http://purl.org/dc/dcmitype/StillImage" />
      </cc:Work>
    </rdf:RDF>
  </metadata>
  <defs
     id="defs5">
    <foreignObject
       requiredExtensions="http://ns.adobe.com/AdobeIllustrator/10.0/"
       x="0"
       y="0"
       width="1"
       height="1"
       id="foreignObject8" />
  </defs>
  <sodipodi:namedview
     inkscape:window-height="1011"
     inkscape:window-width="1920"
     inkscape:pageshadow="2"
     inkscape:pageopacity="0"
     guidetolerance="10.0"
     gridtolerance="10.0"
     objecttolerance="10.0"
     borderopacity="1.0"
     bordercolor="#666666"
     pagecolor="#ffd7d7"
     id="base"
     showgrid="false"
     inkscape:zoom="7.219"
     inkscape:cx="22.302258"
     inkscape:cy="-0.27704668"
     inkscape:window-x="0"
     inkscape:window-y="0"
     inkscape:current-layer="svg2"
     inkscape:window-maximized="1"
     showguides="false"
     inkscape:snap-global="true"
     fit-margin-top="0"
     fit-margin-left="0"
     fit-margin-right="0"
     fit-margin-bottom="0"
     inkscape:snap-bbox="false"
     inkscape:snap-page="true"
     inkscape:snap-grids="false"
     inkscape:snap-to-guides="false"
     inkscape:snap-nodes="false"
     inkscape:snap-others="false"
     inkscape:showpageshadow="2"
     inkscape:pagecheckerboard="0"
     inkscape:deskcolor="#d1d1d1" />
</svg>
